material red1
{
   technique
   {
      pass
      {
         scene_blend alpha_blend
         depth_check on
         depth_write off
         diffuse 0.776470588235294 0.117647058823529 0.117647058823529 1.0
         ambient 0.776470588235294 0.117647058823529 0.117647058823529 1.0
      }
   }
}

material SketchupDefault
{
   technique
   {
      pass
      {
         diffuse 1.0 1.0 1.0
         ambient 1.0 1.0 1.0
      }
   }
}

material SketchupDefault_Back
{
   technique
   {
      pass
      {
         diffuse 0.670588235294118 0.690196078431373 0.8
         ambient 0.670588235294118 0.690196078431373 0.8
      }
   }
}
