# Alias Wavefront MTL File Exported from SketchUp
# with OBJexporter (c) 2010-2012 TIG
# Made for 'grass.obj'

newmtl Default_Material
Ka 1.000000000000 1.000000000000 1.000000000000
Kd 1.000000000000 1.000000000000 1.000000000000
Ks 0.000000000000 0.000000000000 0.000000000000
Ns 0
d 1.000000000000
Tr 1.000000000000

newmtl Plant_Cover_Kudzu
Ka 0.266666666667 0.396078431373 0.223529411765
Kd 0.266666666667 0.396078431373 0.223529411765
Ks 0.333333333333 0.333333333333 0.333333333333
Ns 0
d 1.000000000000
Tr 1.000000000000
map_Kd grass_Textures/Plant_Cover_Kudzu.PNG

newmtl Grass
Ka 0.372549019608 0.494117647059 0.321568627451
Kd 0.372549019608 0.494117647059 0.321568627451
Ks 0.333333333333 0.333333333333 0.333333333333
Ns 0
d 1.000000000000
Tr 1.000000000000
map_Kd grass_Textures/Grass.PNG

#EOF
